<svg width="49px" height="49px" viewBox="0 0 49 49" version="1.1" xmlns="http://www.w3.org/2000/svg" xmlns:xlink="http://www.w3.org/1999/xlink">
    <defs>
        <filter x="-97.9%" y="-95.8%" width="295.7%" height="291.7%" filterUnits="objectBoundingBox" id="filter-1">
            <feOffset dx="0" dy="0" in="SourceAlpha" result="shadowOffsetOuter1"></feOffset>
            <feColorMatrix values="0 0 0 0 0   0 0 0 0 0   0 0 0 0 0  0 0 0 0.5 0" type="matrix" in="shadowBlurOuter1" result="shadowMatrixOuter1"></feColorMatrix>
            <feMerge>
                <feMergeNode in="shadowMatrixOuter1"></feMergeNode>
                <feMergeNode in="SourceGraphic"></feMergeNode>
            </feMerge>
        </filter>
    </defs>
    <g id="Desktop-Page-Designs" stroke="none" stroke-width="1" fill="none" fill-rule="evenodd">
        <g id="Group-6-Copy" filter="url(#filter-1)" transform="translate(1.000000, 0.000000)">
            <circle id="Oval" fill="#FFFFFF" cx="23.5" cy="24.3766234" r="23.5"></circle>
            <polygon id="Rectangle" fill="#991E31" transform="translate(22.400105, 25.040437) rotate(-45.000000) translate(-22.400105, -25.040437) " points="26.3212503 19.1761693 28.2643736 30.9047055 16.5358374 28.9615822"></polygon>
        </g>
    </g>
</svg>